<?xml version="1.0" encoding="utf-8"?>
<!-- Generator: Adobe Illustrator 25.2.1, SVG Export Plug-In . SVG Version: 6.00 Build 0)  -->
<svg version="1.1" id="Layer_1" xmlns="http://www.w3.org/2000/svg" xmlns:xlink="http://www.w3.org/1999/xlink" x="0px" y="0px"
	 viewBox="0 0 40 39.6" style="enable-background:new 0 0 40 39.6;" xml:space="preserve">
<style type="text/css">
	.st0{fill:#1E1E1C;stroke:#1E1E1C;stroke-width:0.5335;stroke-miterlimit:10;}
	.st1{fill:none;stroke:#1E1E1C;stroke-width:0.5335;stroke-miterlimit:10;}
</style>
<g>
	<path class="st0" d="M35.4,2.8c0,0.2,0.1,0.3,0.7,0.9c0.3,0.3,0.4,0.5,0.5,0.5c0.5,0.4,1.1,0.6,1.8,0.8c0.7,0.2,0.8,0.2,1,0.3
		c0.4,0.4,0.3,1.2,0.2,1.3c-0.1,0-0.2-0.3-0.5-0.5c-0.3-0.1-0.6,0-0.9,0.1c-0.5,0.1-0.5,0-2.1-0.2c-0.8-0.1-1.2-0.2-1.5-0.1
		c-0.5,0.2-0.6,0.5-1.3,0.7c-0.5,0.1-0.5,0-1.1,0.2C31.7,6.9,31,7,30.9,7.5C30.7,7.9,31,8.3,31,8.4c0.5,0.8,1.6,0.6,2.7,0.9
		c1.6,0.5,2.7,2.2,3.1,3.5c0.5,1.9-0.5,3.5-1.2,4.8c-0.3,0.6-0.4,0.7-4.7,5c-1.2,1.3-1.6,1.7-2.4,2.3c-1,0.8-1.4,1-2.3,1.8
		c-1.3,1.2-0.9,1.4-1.7,2c-1.7,1.3-3.2,0.8-3.9,2.1c-0.2,0.4-0.2,0.7-0.2,1.2c0,0.1,0,0.2,0,0.4c0,0.3,0.1,1.8,0.9,2.2
		c0.2,0.1,0.4,0.1,0.8,0c0.8,0,1.2-0.2,1.9-0.3c0.8-0.1,0.6,0,1.4-0.1c0.7-0.1,1-0.1,1.3,0.1c0.2,0.1,0.5,0.4,0.5,0.5
		c-0.1,0.1,0-0.3-0.7-0.3c-0.2,0-0.6,0.1-0.6,0.1c0,0.1,0.6,0.3,0.8,0.8c0.1,0.3,0,0.4,0.1,0.5c0.2,0.2,0-0.1,0.4,0
		c0.7,0.1,1.2,1.2,1.1,1.3c-0.1,0-0.2-0.7-0.7-0.7c-0.2,0-0.2,0-0.2,0c-0.2,0.1-0.3,0.6-0.5,0.6c-0.1,0-0.1-0.1-0.2-0.1
		c-0.2,0-0.2,0.3-0.4,0.5c-0.2,0.1-0.3-0.1-0.6,0c-0.1,0-0.2,0.1-0.2,0.3c0,0.3,0.7,0.5,0.8,1.1c0,0.2,0.1,0.5,0.1,0.5
		c-0.1,0-0.5-0.7-0.9-0.8c0,0-0.2,0-0.3,0c-0.1,0.1-0.1,0.2-0.2,0.3c-0.1,0-0.3-0.3-0.7-0.6c-0.2-0.2-0.4-0.2-0.8-0.4
		c-0.5-0.2-0.5-0.2-0.8-0.3c-0.3-0.2-0.3-0.3-0.6-0.4c-0.3-0.1-0.3,0-0.6-0.1c-0.5-0.2-0.5-0.3-0.8-0.4c-0.3,0-0.4,0.1-0.6-0.1
		c-0.1-0.1-0.1-0.3-0.2-0.3c-0.2,0-0.3,0.5-0.6,0.5c-0.2,0-0.2-0.3-0.4-0.3c-0.3,0-0.4,0.7-0.5,0.6c-0.1,0-0.2-0.7,0.2-0.9
		c0.2-0.2,0.5,0,0.8-0.1c0.3-0.1,0.7-0.6,0.6-1c-0.1-0.3-0.5-0.6-0.7-0.6c-0.2,0-0.2,0.2-0.7,0.9c0,0-0.1,0.2-0.2,0.1
		c-0.1,0-0.1-0.2-0.2-0.2c-0.2,0-0.4,0.4-0.5,0.3c-0.1,0-0.1-0.6,0.3-0.8c0.1-0.1,0.2-0.1,0.4-0.2c0.3-0.2,0.3-0.7,0.3-0.9
		c0-0.9-0.9-1.1-1.3-2.3c-0.2-0.7,0-1.1-0.4-1.3c-0.2-0.2-0.4,0-1.1,0c-0.8,0-0.8-0.2-1.9-0.2c-0.5,0-0.9-0.1-1.3,0
		c-0.6,0.1-0.7,0.3-1.2,0.4c-1.4,0.5-2-0.3-3.2,0.2c-0.3,0.1-0.5,0.3-1.1,0.6c-0.5,0.2-0.8,0.2-1,0.3c-1.1,0.3-1.1,1-2.5,1.8
		c-1,0.6-1.8,0.7-2.1,0.7c-0.3,0-1.2,0-1.4-0.4c-0.2-0.4,0.2-1,0.5-1.5c1.1-1.6,2.6-2.1,2.5-2.9c0-0.2-0.1-0.3-0.1-0.5
		c0.1-0.5,0.7-0.7,1.3-1c0.7-0.4,1-0.8,1.7-1.7c0.8-1.1,0.6-1.3,1.3-2.3c0.3-0.5,0.9-1,2.1-2c1.3-1.2,1.5-1.3,2.3-2
		c0.8-0.8,0.8-0.9,1.4-1.4c0.7-0.7,1.1-0.9,2.8-2c3.1-2,4.2-2.8,5.1-2.8c0.2,0,0.6,0,1.1-0.2c0.5-0.2,0.5-0.3,1-0.5
		c0.2-0.1,0.3-0.1,1.3-0.3c0.7-0.2,1.1-0.3,1.1-0.3c1.3-0.2,2.2,0.3,2.3,0.1c0.1-0.2-0.4-0.5-0.8-1.1c-1-1.4-0.8-3.3-1-3.3
		c-0.2,0-0.2,2-0.6,2c-0.2,0-0.3-0.6-0.4-0.5c-0.2,0-0.1,1.5-0.2,1.6c-0.1,0-0.1-1.3-0.5-1.4s-0.9,1.3-1,1.3c-0.1,0,0.8-2.1,0.5-2.3
		c-0.2-0.1-0.9,0.8-1,0.7c-0.2-0.1,1.3-2.2,1.1-2.4c-0.1-0.1-0.8,0.7-0.9,0.6c-0.2-0.1,1.2-2.4,1.3-2.6c0.5-0.8,0.7-1.2,1-1.5
		c0.3-0.4,1.1-1.3,2.4-2c0.5-0.2,1.6-0.8,3.2-0.9c2.1,0,4.3,1,4.3,1.9C35.5,2.3,35.3,2.4,35.4,2.8z"/>
	<path class="st0" d="M24.8,34.1c0-0.1,0.1-0.4,0.2-0.5c0.3-0.2,0.7,0,0.7,0s-0.3-0.2-0.3-0.3c0,0,0.1,0,0.3-0.1
		c0.6-0.2,1.3,0.1,1,0c-0.1,0-0.6-0.3-0.8-0.4c-0.8-0.3-0.6,0.2-1.3-0.2c-0.2-0.2-0.3-0.4-0.6-0.4c-0.3,0-0.5,0.2-0.7,0.1
		c-0.1-0.1-0.3-0.3-0.2-0.4c0.1-0.3,1-0.2,1-0.3c0,0-0.7-0.2-1.4,0c-0.4,0.1-0.5,0.3-0.9,0.6c-0.4,0.2-1.3,0.3-1.5,0.3L20,33.8
		l1.2,1.9L24.8,34.1c-0.3,0.5-0.7,0.9-1,1.4"/>
	<path class="st1" d="M19.5,29.2c-0.7,0.4-0.9,0.8-0.9,1.1c-0.1,0.6,0.3,1,0.7,2c0.3,0.7,0.6,1.7,0.6,2.1"/>
	<circle class="st1" cx="32.4" cy="3" r="0.6"/>
</g>
</svg>
