<svg xmlns="http://www.w3.org/2000/svg" width="24.043" height="30.053" viewBox="0 0 24.043 30.053">
  <path id="ic_insert_drive_file_24px" d="M7.005,2a3,3,0,0,0-2.99,3.005L4,29.048a3,3,0,0,0,2.99,3.005H25.037a3.014,3.014,0,0,0,3.005-3.005V11.016L19.027,2ZM17.524,12.519V4.254l8.265,8.265Z" transform="translate(-4 -2)" fill="#000"/>
</svg>
