<svg xmlns="http://www.w3.org/2000/svg" viewBox="0 0 31.549 25.24">
  <path id="ic_folder_24px" d="M14.62,4H5.155A3.151,3.151,0,0,0,2.016,7.155L2,26.085A3.164,3.164,0,0,0,5.155,29.24h25.24a3.164,3.164,0,0,0,3.155-3.155V10.31a3.164,3.164,0,0,0-3.155-3.155H17.775Z" transform="translate(-2 -4)" fill="#fff"/>
</svg>
